L2/archi2/TP2/EX1/test.vcd
$date
  Mon Oct 21 15:18:25 2019
$end
$version
  GHDL v0
$end
$timescale
  1 fs
$end
$var reg 1 ! c $end
$var reg 1 " r $end
$var reg 4 # a[3:0] $end
$var reg 4 $ b[3:0] $end
$var reg 4 % s[3:0] $end
$scope module adder $end
$var reg 4 & a[3:0] $end
$var reg 4 ' b[3:0] $end
$var reg 1 ( c $end
$var reg 4 ) s[3:0] $end
$var reg 1 * r $end
$var reg 5 + d[4:0] $end
$scope module (0) $end
$scope module adder $end
$var reg 1 , as $end
$var reg 1 - bs $end
$var reg 1 . cs $end
$var reg 1 / ss $end
$var reg 1 0 rs $end
$upscope $end
$upscope $end
$scope module (1) $end
$scope module adder $end
$var reg 1 1 as $end
$var reg 1 2 bs $end
$var reg 1 3 cs $end
$var reg 1 4 ss $end
$var reg 1 5 rs $end
$upscope $end
$upscope $end
$scope module (2) $end
$scope module adder $end
$var reg 1 6 as $end
$var reg 1 7 bs $end
$var reg 1 8 cs $end
$var reg 1 9 ss $end
$var reg 1 : rs $end
$upscope $end
$upscope $end
$scope module (3) $end
$scope module adder $end
$var reg 1 ; as $end
$var reg 1 < bs $end
$var reg 1 = cs $end
$var reg 1 > ss $end
$var reg 1 ? rs $end
$upscope $end
$upscope $end
$upscope $end
$enddefinitions $end
#0
0!
0"
b0000 #
b0000 $
b0000 %
b0000 &
b0000 '
0(
b0000 )
0*
b00000 +
0,
0-
0.
0/
00
01
02
03
04
05
06
07
08
09
0:
0;
0<
0=
0>
0?
#5000000
1!
b0001 %
1(
b0001 )
b00001 +
1.
1/
#10000000
0!
b0001 $
b0001 %
b0001 '
0(
b0001 )
b00000 +
1-
0.
1/
00
03
04
#15000000
1!
b0010 %
1(
b0010 )
b00011 +
1.
0/
10
13
14
#20000000
0!
b0010 $
b0010 %
b0010 '
0(
b0010 )
b00000 +
0-
0.
0/
00
12
03
14
05
08
09
#25000000
1!
b0011 %
1(
b0011 )
b00001 +
1.
1/
#30000000
0!
b0011 $
b0011 %
b0011 '
0(
b0011 )
b00000 +
1-
0.
1/
00
03
14
05
08
09
#35000000
1!
b0100 %
1(
b0100 )
b00111 +
1.
0/
10
13
04
15
18
19
#40000000
0!
b0100 $
b0100 %
b0100 '
0(
b0100 )
b00000 +
0-
0.
0/
00
02
03
04
05
17
08
19
0:
0=
0>
#45000000
1!
b0101 %
1(
b0101 )
b00001 +
1.
1/
#50000000
0!
b0101 $
b0101 %
b0101 '
0(
b0101 )
b00000 +
1-
0.
1/
00
03
04
#55000000
1!
b0110 %
1(
b0110 )
b00011 +
1.
0/
10
13
14
#60000000
0!
b0110 $
b0110 %
b0110 '
0(
b0110 )
b00000 +
0-
0.
0/
00
12
03
14
05
08
19
0:
0=
0>
#65000000
1!
b0111 %
1(
b0111 )
b00001 +
1.
1/
#70000000
0!
b0111 $
b0111 %
b0111 '
0(
b0111 )
b00000 +
1-
0.
1/
00
03
14
05
08
19
0:
0=
0>
#75000000
1!
b1000 %
1(
b1000 )
b01111 +
1.
0/
10
13
04
15
18
09
1:
1=
1>
#80000000
0!
0"
b1000 $
b1000 %
b1000 '
0(
b1000 )
0*
b00000 +
0-
0.
0/
00
02
03
04
05
07
08
09
0:
1<
0=
1>
0?
#85000000
1!
b1001 %
1(
b1001 )
b00001 +
1.
1/
#90000000
0!
b1001 $
b1001 %
b1001 '
0(
b1001 )
b00000 +
1-
0.
1/
00
03
04
#95000000
1!
b1010 %
1(
b1010 )
b00011 +
1.
0/
10
13
14
#100000000
0!
b1010 $
b1010 %
b1010 '
0(
b1010 )
b00000 +
0-
0.
0/
00
12
03
14
05
08
09
#105000000
1!
b1011 %
1(
b1011 )
b00001 +
1.
1/
#110000000
0!
b1011 $
b1011 %
b1011 '
0(
b1011 )
b00000 +
1-
0.
1/
00
03
14
05
08
09
#115000000
1!
b1100 %
1(
b1100 )
b00111 +
1.
0/
10
13
04
15
18
19
#120000000
0!
0"
b1100 $
b1100 %
b1100 '
0(
b1100 )
0*
b00000 +
0-
0.
0/
00
02
03
04
05
17
08
19
0:
0=
1>
0?
#125000000
1!
b1101 %
1(
b1101 )
b00001 +
1.
1/
#130000000
0!
b1101 $
b1101 %
b1101 '
0(
b1101 )
b00000 +
1-
0.
1/
00
03
04
#135000000
1!
b1110 %
1(
b1110 )
b00011 +
1.
0/
10
13
14
#140000000
0!
0"
b1110 $
b1110 %
b1110 '
0(
b1110 )
0*
b00000 +
0-
0.
0/
00
12
03
14
05
08
19
0:
0=
1>
0?
#145000000
1!
b1111 %
1(
b1111 )
b00001 +
1.
1/
#150000000
0!
0"
b1111 $
b1111 %
b1111 '
0(
b1111 )
0*
b00000 +
1-
0.
1/
00
03
14
05
08
19
0:
0=
1>
0?
#155000000
1!
1"
b0000 %
1(
b0000 )
1*
b11111 +
1.
0/
10
13
04
15
18
09
1:
1=
0>
1?
#160000000
0!
0"
b0001 #
b0000 $
b0001 %
b0001 &
b0000 '
0(
b0001 )
0*
b00000 +
1,
0-
0.
1/
00
02
03
04
05
07
08
09
0:
0<
0=
0>
0?
#165000000
1!
b0010 %
1(
b0010 )
b00011 +
1.
0/
10
13
14
#170000000
0!
b0001 $
b0010 %
b0001 '
0(
b0010 )
b00010 +
1-
0.
0/
#175000000
1!
b0011 %
1(
b0011 )
b00011 +
1.
1/
#180000000
0!
b0010 $
b0011 %
b0010 '
0(
b0011 )
b00000 +
0-
0.
1/
00
12
03
14
05
08
09
#185000000
1!
b0100 %
1(
b0100 )
b00111 +
1.
0/
10
13
04
15
18
19
#190000000
0!
b0011 $
b0100 %
b0011 '
0(
b0100 )
b00110 +
1-
0.
0/
#195000000
1!
b0101 %
1(
b0101 )
b00111 +
1.
1/
#200000000
0!
b0100 $
b0101 %
b0100 '
0(
b0101 )
b00000 +
0-
0.
1/
00
02
03
04
05
17
08
19
0:
0=
0>
#205000000
1!
b0110 %
1(
b0110 )
b00011 +
1.
0/
10
13
14
#210000000
0!
b0101 $
b0110 %
b0101 '
0(
b0110 )
b00010 +
1-
0.
0/
#215000000
1!
b0111 %
1(
b0111 )
b00011 +
1.
1/
#220000000
0!
b0110 $
b0111 %
b0110 '
0(
b0111 )
b00000 +
0-
0.
1/
00
12
03
14
05
08
19
0:
0=
0>
#225000000
1!
b1000 %
1(
b1000 )
b01111 +
1.
0/
10
13
04
15
18
09
1:
1=
1>
#230000000
0!
b0111 $
b1000 %
b0111 '
0(
b1000 )
b01110 +
1-
0.
0/
#235000000
1!
b1001 %
1(
b1001 )
b01111 +
1.
1/
#240000000
0!
0"
b1000 $
b1001 %
b1000 '
0(
b1001 )
0*
b00000 +
0-
0.
1/
00
02
03
04
05
07
08
09
0:
1<
0=
1>
0?
#245000000
1!
b1010 %
1(
b1010 )
b00011 +
1.
0/
10
13
14
#250000000
0!
b1001 $
b1010 %
b1001 '
0(
b1010 )
b00010 +
1-
0.
0/
#255000000
1!
b1011 %
1(
b1011 )
b00011 +
1.
1/
#260000000
0!
b1010 $
b1011 %
b1010 '
0(
b1011 )
b00000 +
0-
0.
1/
00
12
03
14
05
08
09
#265000000
1!
b1100 %
1(
b1100 )
b00111 +
1.
0/
10
13
04
15
18
19
#270000000
0!
b1011 $
b1100 %
b1011 '
0(
b1100 )
b00110 +
1-
0.
0/
#275000000
1!
b1101 %
1(
b1101 )
b00111 +
1.
1/
#280000000
0!
0"
b1100 $
b1101 %
b1100 '
0(
b1101 )
0*
b00000 +
0-
0.
1/
00
02
03
04
05
17
08
19
0:
0=
1>
0?
#285000000
1!
b1110 %
1(
b1110 )
b00011 +
1.
0/
10
13
14
#290000000
0!
b1101 $
b1110 %
b1101 '
0(
b1110 )
b00010 +
1-
0.
0/
#295000000
1!
b1111 %
1(
b1111 )
b00011 +
1.
1/
#300000000
0!
0"
b1110 $
b1111 %
b1110 '
0(
b1111 )
0*
b00000 +
0-
0.
1/
00
12
03
14
05
08
19
0:
0=
1>
0?
#305000000
1!
1"
b0000 %
1(
b0000 )
1*
b11111 +
1.
0/
10
13
04
15
18
09
1:
1=
0>
1?
#310000000
0!
b1111 $
b0000 %
b1111 '
0(
b0000 )
b11110 +
1-
0.
0/
#315000000
1!
b0001 %
1(
b0001 )
b11111 +
1.
1/
#320000000
0!
0"
b0010 #
b0000 $
b0010 %
b0010 &
b0000 '
0(
b0010 )
0*
b00000 +
0,
0-
0.
0/
00
11
02
03
14
05
07
08
09
0:
0<
0=
0>
0?
#325000000
1!
b0011 %
1(
b0011 )
b00001 +
1.
1/
#330000000
0!
b0001 $
b0011 %
b0001 '
0(
b0011 )
b00000 +
1-
0.
1/
00
03
14
05
08
09
#335000000
1!
b0100 %
1(
b0100 )
b00111 +
1.
0/
10
13
04
15
18
19
#340000000
0!
b0010 $
b0100 %
b0010 '
0(
b0100 )
b00100 +
0-
0.
0/
00
12
03
04
#345000000
1!
b0101 %
1(
b0101 )
b00101 +
1.
1/
#350000000
0!
b0011 $
b0101 %
b0011 '
0(
b0101 )
b00100 +
1-
0.
1/
00
03
04
#355000000
1!
b0110 %
1(
b0110 )
b00111 +
1.
0/
10
13
14
#360000000
0!
b0100 $
b0110 %
b0100 '
0(
b0110 )
b00000 +
0-
0.
0/
00
02
03
14
05
17
08
19
0:
0=
0>
#365000000
1!
b0111 %
1(
b0111 )
b00001 +
1.
1/
#370000000
0!
b0101 $
b0111 %
b0101 '
0(
b0111 )
b00000 +
1-
0.
1/
00
03
14
05
08
19
0:
0=
0>
#375000000
1!
b1000 %
1(
b1000 )
b01111 +
1.
0/
10
13
04
15
18
09
1:
1=
1>
#380000000
0!
b0110 $
b1000 %
b0110 '
0(
b1000 )
b01100 +
0-
0.
0/
00
12
03
04
#385000000
1!
b1001 %
1(
b1001 )
b01101 +
1.
1/
#390000000
0!
b0111 $
b1001 %
b0111 '
0(
b1001 )
b01100 +
1-
0.
1/
00
03
04
#395000000
1!
b1010 %
1(
b1010 )
b01111 +
1.
0/
10
13
14
#400000000
0!
0"
b1000 $
b1010 %
b1000 '
0(
b1010 )
0*
b00000 +
0-
0.
0/
00
02
03
14
05
07
08
09
0:
1<
0=
1>
0?
#405000000
1!
b1011 %
1(
b1011 )
b00001 +
1.
1/
#410000000
0!
b1001 $
b1011 %
b1001 '
0(
b1011 )
b00000 +
1-
0.
1/
00
03
14
05
08
09
#415000000
1!
b1100 %
1(
b1100 )
b00111 +
1.
0/
10
13
04
15
18
19
#420000000
0!
b1010 $
b1100 %
b1010 '
0(
b1100 )
b00100 +
0-
0.
0/
00
12
03
04
#425000000
1!
b1101 %
1(
b1101 )
b00101 +
1.
1/
#430000000
0!
b1011 $
b1101 %
b1011 '
0(
b1101 )
b00100 +
1-
0.
1/
00
03
04
#435000000
1!
b1110 %
1(
b1110 )
b00111 +
1.
0/
10
13
14
#440000000
0!
0"
b1100 $
b1110 %
b1100 '
0(
b1110 )
0*
b00000 +
0-
0.
0/
00
02
03
14
05
17
08
19
0:
0=
1>
0?
#445000000
1!
b1111 %
1(
b1111 )
b00001 +
1.
1/
#450000000
0!
0"
b1101 $
b1111 %
b1101 '
0(
b1111 )
0*
b00000 +
1-
0.
1/
00
03
14
05
08
19
0:
0=
1>
0?
#455000000
1!
1"
b0000 %
1(
b0000 )
1*
b11111 +
1.
0/
10
13
04
15
18
09
1:
1=
0>
1?
#460000000
0!
b1110 $
b0000 %
b1110 '
0(
b0000 )
b11100 +
0-
0.
0/
00
12
03
04
#465000000
1!
b0001 %
1(
b0001 )
b11101 +
1.
1/
#470000000
0!
b1111 $
b0001 %
b1111 '
0(
b0001 )
b11100 +
1-
0.
1/
00
03
04
#475000000
1!
b0010 %
1(
b0010 )
b11111 +
1.
0/
10
13
14
#480000000
0!
0"
b0011 #
b0000 $
b0011 %
b0011 &
b0000 '
0(
b0011 )
0*
b00000 +
1,
0-
0.
1/
00
02
03
14
05
07
08
09
0:
0<
0=
0>
0?
#485000000
1!
b0100 %
1(
b0100 )
b00111 +
1.
0/
10
13
04
15
18
19
#490000000
0!
b0001 $
b0100 %
b0001 '
0(
b0100 )
b00110 +
1-
0.
0/
#495000000
1!
b0101 %
1(
b0101 )
b00111 +
1.
1/
#500000000
0!
b0010 $
b0101 %
b0010 '
0(
b0101 )
b00100 +
0-
0.
1/
00
12
03
04
#505000000
1!
b0110 %
1(
b0110 )
b00111 +
1.
0/
10
13
14
#510000000
0!
b0011 $
b0110 %
b0011 '
0(
b0110 )
b00110 +
1-
0.
0/
#515000000
1!
b0111 %
1(
b0111 )
b00111 +
1.
1/
#520000000
0!
b0100 $
b0111 %
b0100 '
0(
b0111 )
b00000 +
0-
0.
1/
00
02
03
14
05
17
08
19
0:
0=
0>
#525000000
1!
b1000 %
1(
b1000 )
b01111 +
1.
0/
10
13
04
15
18
09
1:
1=
1>
#530000000
0!
b0101 $
b1000 %
b0101 '
0(
b1000 )
b01110 +
1-
0.
0/
#535000000
1!
b1001 %
1(
b1001 )
b01111 +
1.
1/
#540000000
0!
b0110 $
b1001 %
b0110 '
0(
b1001 )
b01100 +
0-
0.
1/
00
12
03
04
#545000000
1!
b1010 %
1(
b1010 )
b01111 +
1.
0/
10
13
14
#550000000
0!
b0111 $
b1010 %
b0111 '
0(
b1010 )
b01110 +
1-
0.
0/
#555000000
1!
b1011 %
1(
b1011 )
b01111 +
1.
1/
#560000000
0!
0"
b1000 $
b1011 %
b1000 '
0(
b1011 )
0*
b00000 +
0-
0.
1/
00
02
03
14
05
07
08
09
0:
1<
0=
1>
0?
#565000000
1!
b1100 %
1(
b1100 )
b00111 +
1.
0/
10
13
04
15
18
19
#570000000
0!
b1001 $
b1100 %
b1001 '
0(
b1100 )
b00110 +
1-
0.
0/
#575000000
1!
b1101 %
1(
b1101 )
b00111 +
1.
1/
#580000000
0!
b1010 $
b1101 %
b1010 '
0(
b1101 )
b00100 +
0-
0.
1/
00
12
03
04
#585000000
1!
b1110 %
1(
b1110 )
b00111 +
1.
0/
10
13
14
#590000000
0!
b1011 $
b1110 %
b1011 '
0(
b1110 )
b00110 +
1-
0.
0/
#595000000
1!
b1111 %
1(
b1111 )
b00111 +
1.
1/
#600000000
0!
0"
b1100 $
b1111 %
b1100 '
0(
b1111 )
0*
b00000 +
0-
0.
1/
00
02
03
14
05
17
08
19
0:
0=
1>
0?
#605000000
1!
1"
b0000 %
1(
b0000 )
1*
b11111 +
1.
0/
10
13
04
15
18
09
1:
1=
0>
1?
#610000000
0!
b1101 $
b0000 %
b1101 '
0(
b0000 )
b11110 +
1-
0.
0/
#615000000
1!
b0001 %
1(
b0001 )
b11111 +
1.
1/
#620000000
0!
b1110 $
b0001 %
b1110 '
0(
b0001 )
b11100 +
0-
0.
1/
00
12
03
04
#625000000
1!
b0010 %
1(
b0010 )
b11111 +
1.
0/
10
13
14
#630000000
0!
b1111 $
b0010 %
b1111 '
0(
b0010 )
b11110 +
1-
0.
0/
#635000000
1!
b0011 %
1(
b0011 )
b11111 +
1.
1/
#640000000
0!
0"
b0100 #
b0000 $
b0100 %
b0100 &
b0000 '
0(
b0100 )
0*
b00000 +
0,
0-
0.
0/
00
01
02
03
04
05
16
07
08
19
0:
0<
0=
0>
0?
#645000000
1!
b0101 %
1(
b0101 )
b00001 +
1.
1/
#650000000
0!
b0001 $
b0101 %
b0001 '
0(
b0101 )
b00000 +
1-
0.
1/
00
03
04
#655000000
1!
b0110 %
1(
b0110 )
b00011 +
1.
0/
10
13
14
#660000000
0!
b0010 $
b0110 %
b0010 '
0(
b0110 )
b00000 +
0-
0.
0/
00
12
03
14
05
08
19
0:
0=
0>
#665000000
1!
b0111 %
1(
b0111 )
b00001 +
1.
1/
#670000000
0!
b0011 $
b0111 %
b0011 '
0(
b0111 )
b00000 +
1-
0.
1/
00
03
14
05
08
19
0:
0=
0>
#675000000
1!
b1000 %
1(
b1000 )
b01111 +
1.
0/
10
13
04
15
18
09
1:
1=
1>
#680000000
0!
b0100 $
b1000 %
b0100 '
0(
b1000 )
b01000 +
0-
0.
0/
00
02
03
04
05
17
08
09
#685000000
1!
b1001 %
1(
b1001 )
b01001 +
1.
1/
#690000000
0!
b0101 $
b1001 %
b0101 '
0(
b1001 )
b01000 +
1-
0.
1/
00
03
04
#695000000
1!
b1010 %
1(
b1010 )
b01011 +
1.
0/
10
13
14
#700000000
0!
b0110 $
b1010 %
b0110 '
0(
b1010 )
b01000 +
0-
0.
0/
00
12
03
14
05
08
09
#705000000
1!
b1011 %
1(
b1011 )
b01001 +
1.
1/
#710000000
0!
b0111 $
b1011 %
b0111 '
0(
b1011 )
b01000 +
1-
0.
1/
00
03
14
05
08
09
#715000000
1!
b1100 %
1(
b1100 )
b01111 +
1.
0/
10
13
04
15
18
19
#720000000
0!
0"
b1000 $
b1100 %
b1000 '
0(
b1100 )
0*
b00000 +
0-
0.
0/
00
02
03
04
05
07
08
19
0:
1<
0=
1>
0?
#725000000
1!
b1101 %
1(
b1101 )
b00001 +
1.
1/
#730000000
0!
b1001 $
b1101 %
b1001 '
0(
b1101 )
b00000 +
1-
0.
1/
00
03
04
#735000000
1!
b1110 %
1(
b1110 )
b00011 +
1.
0/
10
13
14
#740000000
0!
0"
b1010 $
b1110 %
b1010 '
0(
b1110 )
0*
b00000 +
0-
0.
0/
00
12
03
14
05
08
19
0:
0=
1>
0?
#745000000
1!
b1111 %
1(
b1111 )
b00001 +
1.
1/
#750000000
0!
0"
b1011 $
b1111 %
b1011 '
0(
b1111 )
0*
b00000 +
1-
0.
1/
00
03
14
05
08
19
0:
0=
1>
0?
#755000000
1!
1"
b0000 %
1(
b0000 )
1*
b11111 +
1.
0/
10
13
04
15
18
09
1:
1=
0>
1?
#760000000
0!
b1100 $
b0000 %
b1100 '
0(
b0000 )
b11000 +
0-
0.
0/
00
02
03
04
05
17
08
09
#765000000
1!
b0001 %
1(
b0001 )
b11001 +
1.
1/
#770000000
0!
b1101 $
b0001 %
b1101 '
0(
b0001 )
b11000 +
1-
0.
1/
00
03
04
#775000000
1!
b0010 %
1(
b0010 )
b11011 +
1.
0/
10
13
14
#780000000
0!
b1110 $
b0010 %
b1110 '
0(
b0010 )
b11000 +
0-
0.
0/
00
12
03
14
05
08
09
#785000000
1!
b0011 %
1(
b0011 )
b11001 +
1.
1/
#790000000
0!
b1111 $
b0011 %
b1111 '
0(
b0011 )
b11000 +
1-
0.
1/
00
03
14
05
08
09
#795000000
1!
b0100 %
1(
b0100 )
b11111 +
1.
0/
10
13
04
15
18
19
#800000000
0!
0"
b0101 #
b0000 $
b0101 %
b0101 &
b0000 '
0(
b0101 )
0*
b00000 +
1,
0-
0.
1/
00
02
03
04
05
07
08
19
0:
0<
0=
0>
0?
#805000000
1!
b0110 %
1(
b0110 )
b00011 +
1.
0/
10
13
14
#810000000
0!
b0001 $
b0110 %
b0001 '
0(
b0110 )
b00010 +
1-
0.
0/
#815000000
1!
b0111 %
1(
b0111 )
b00011 +
1.
1/
#820000000
0!
b0010 $
b0111 %
b0010 '
0(
b0111 )
b00000 +
0-
0.
1/
00
12
03
14
05
08
19
0:
0=
0>
#825000000
1!
b1000 %
1(
b1000 )
b01111 +
1.
0/
10
13
04
15
18
09
1:
1=
1>
#830000000
0!
b0011 $
b1000 %
b0011 '
0(
b1000 )
b01110 +
1-
0.
0/
#835000000
1!
b1001 %
1(
b1001 )
b01111 +
1.
1/
#840000000
0!
b0100 $
b1001 %
b0100 '
0(
b1001 )
b01000 +
0-
0.
1/
00
02
03
04
05
17
08
09
#845000000
1!
b1010 %
1(
b1010 )
b01011 +
1.
0/
10
13
14
#850000000
0!
b0101 $
b1010 %
b0101 '
0(
b1010 )
b01010 +
1-
0.
0/
#855000000
1!
b1011 %
1(
b1011 )
b01011 +
1.
1/
#860000000
0!
b0110 $
b1011 %
b0110 '
0(
b1011 )
b01000 +
0-
0.
1/
00
12
03
14
05
08
09
#865000000
1!
b1100 %
1(
b1100 )
b01111 +
1.
0/
10
13
04
15
18
19
#870000000
0!
b0111 $
b1100 %
b0111 '
0(
b1100 )
b01110 +
1-
0.
0/
#875000000
1!
b1101 %
1(
b1101 )
b01111 +
1.
1/
#880000000
0!
0"
b1000 $
b1101 %
b1000 '
0(
b1101 )
0*
b00000 +
0-
0.
1/
00
02
03
04
05
07
08
19
0:
1<
0=
1>
0?
#885000000
1!
b1110 %
1(
b1110 )
b00011 +
1.
0/
10
13
14
#890000000
0!
b1001 $
b1110 %
b1001 '
0(
b1110 )
b00010 +
1-
0.
0/
#895000000
1!
b1111 %
1(
b1111 )
b00011 +
1.
1/
#900000000
0!
0"
b1010 $
b1111 %
b1010 '
0(
b1111 )
0*
b00000 +
0-
0.
1/
00
12
03
14
05
08
19
0:
0=
1>
0?
#905000000
1!
1"
b0000 %
1(
b0000 )
1*
b11111 +
1.
0/
10
13
04
15
18
09
1:
1=
0>
1?
#910000000
0!
b1011 $
b0000 %
b1011 '
0(
b0000 )
b11110 +
1-
0.
0/
#915000000
1!
b0001 %
1(
b0001 )
b11111 +
1.
1/
#920000000
0!
b1100 $
b0001 %
b1100 '
0(
b0001 )
b11000 +
0-
0.
1/
00
02
03
04
05
17
08
09
#925000000
1!
b0010 %
1(
b0010 )
b11011 +
1.
0/
10
13
14
#930000000
0!
b1101 $
b0010 %
b1101 '
0(
b0010 )
b11010 +
1-
0.
0/
#935000000
1!
b0011 %
1(
b0011 )
b11011 +
1.
1/
#940000000
0!
b1110 $
b0011 %
b1110 '
0(
b0011 )
b11000 +
0-
0.
1/
00
12
03
14
05
08
09
#945000000
1!
b0100 %
1(
b0100 )
b11111 +
1.
0/
10
13
04
15
18
19
#950000000
0!
b1111 $
b0100 %
b1111 '
0(
b0100 )
b11110 +
1-
0.
0/
#955000000
1!
b0101 %
1(
b0101 )
b11111 +
1.
1/
#960000000
0!
0"
b0110 #
b0000 $
b0110 %
b0110 &
b0000 '
0(
b0110 )
0*
b00000 +
0,
0-
0.
0/
00
11
02
03
14
05
07
08
19
0:
0<
0=
0>
0?
#965000000
1!
b0111 %
1(
b0111 )
b00001 +
1.
1/
#970000000
0!
b0001 $
b0111 %
b0001 '
0(
b0111 )
b00000 +
1-
0.
1/
00
03
14
05
08
19
0:
0=
0>
#975000000
1!
b1000 %
1(
b1000 )
b01111 +
1.
0/
10
13
04
15
18
09
1:
1=
1>
#980000000
0!
b0010 $
b1000 %
b0010 '
0(
b1000 )
b01100 +
0-
0.
0/
00
12
03
04
#985000000
1!
b1001 %
1(
b1001 )
b01101 +
1.
1/
#990000000
0!
b0011 $
b1001 %
b0011 '
0(
b1001 )
b01100 +
1-
0.
1/
00
03
04
#995000000
1!
b1010 %
1(
b1010 )
b01111 +
1.
0/
10
13
14
#1000000000
0!
b0100 $
b1010 %
b0100 '
0(
b1010 )
b01000 +
0-
0.
0/
00
02
03
14
05
17
08
09
#1005000000
1!
b1011 %
1(
b1011 )
b01001 +
1.
1/
#1010000000
0!
b0101 $
b1011 %
b0101 '
0(
b1011 )
b01000 +
1-
0.
1/
00
03
14
05
08
09
#1015000000
1!
b1100 %
1(
b1100 )
b01111 +
1.
0/
10
13
04
15
18
19
#1020000000
0!
b0110 $
b1100 %
b0110 '
0(
b1100 )
b01100 +
0-
0.
0/
00
12
03
04
#1025000000
1!
b1101 %
1(
b1101 )
b01101 +
1.
1/
#1030000000
0!
b0111 $
b1101 %
b0111 '
0(
b1101 )
b01100 +
1-
0.
1/
00
03
04
#1035000000
1!
b1110 %
1(
b1110 )
b01111 +
1.
0/
10
13
14
#1040000000
0!
0"
b1000 $
b1110 %
b1000 '
0(
b1110 )
0*
b00000 +
0-
0.
0/
00
02
03
14
05
07
08
19
0:
1<
0=
1>
0?
#1045000000
1!
b1111 %
1(
b1111 )
b00001 +
1.
1/
#1050000000
0!
0"
b1001 $
b1111 %
b1001 '
0(
b1111 )
0*
b00000 +
1-
0.
1/
00
03
14
05
08
19
0:
0=
1>
0?
#1055000000
1!
1"
b0000 %
1(
b0000 )
1*
b11111 +
1.
0/
10
13
04
15
18
09
1:
1=
0>
1?
#1060000000
0!
b1010 $
b0000 %
b1010 '
0(
b0000 )
b11100 +
0-
0.
0/
00
12
03
04
#1065000000
1!
b0001 %
1(
b0001 )
b11101 +
1.
1/
#1070000000
0!
b1011 $
b0001 %
b1011 '
0(
b0001 )
b11100 +
1-
0.
1/
00
03
04
#1075000000
1!
b0010 %
1(
b0010 )
b11111 +
1.
0/
10
13
14
#1080000000
0!
b1100 $
b0010 %
b1100 '
0(
b0010 )
b11000 +
0-
0.
0/
00
02
03
14
05
17
08
09
#1085000000
1!
b0011 %
1(
b0011 )
b11001 +
1.
1/
#1090000000
0!
b1101 $
b0011 %
b1101 '
0(
b0011 )
b11000 +
1-
0.
1/
00
03
14
05
08
09
#1095000000
1!
b0100 %
1(
b0100 )
b11111 +
1.
0/
10
13
04
15
18
19
#1100000000
0!
b1110 $
b0100 %
b1110 '
0(
b0100 )
b11100 +
0-
0.
0/
00
12
03
04
#1105000000
1!
b0101 %
1(
b0101 )
b11101 +
1.
1/
#1110000000
0!
b1111 $
b0101 %
b1111 '
0(
b0101 )
b11100 +
1-
0.
1/
00
03
04
#1115000000
1!
b0110 %
1(
b0110 )
b11111 +
1.
0/
10
13
14
#1120000000
0!
0"
b0111 #
b0000 $
b0111 %
b0111 &
b0000 '
0(
b0111 )
0*
b00000 +
1,
0-
0.
1/
00
02
03
14
05
07
08
19
0:
0<
0=
0>
0?
#1125000000
1!
b1000 %
1(
b1000 )
b01111 +
1.
0/
10
13
04
15
18
09
1:
1=
1>
#1130000000
0!
b0001 $
b1000 %
b0001 '
0(
b1000 )
b01110 +
1-
0.
0/
#1135000000
1!
b1001 %
1(
b1001 )
b01111 +
1.
1/
#1140000000
0!
b0010 $
b1001 %
b0010 '
0(
b1001 )
b01100 +
0-
0.
1/
00
12
03
04
#1145000000
1!
b1010 %
1(
b1010 )
b01111 +
1.
0/
10
13
14
#1150000000
0!
b0011 $
b1010 %
b0011 '
0(
b1010 )
b01110 +
1-
0.
0/
#1155000000
1!
b1011 %
1(
b1011 )
b01111 +
1.
1/
#1160000000
0!
b0100 $
b1011 %
b0100 '
0(
b1011 )
b01000 +
0-
0.
1/
00
02
03
14
05
17
08
09
#1165000000
1!
b1100 %
1(
b1100 )
b01111 +
1.
0/
10
13
04
15
18
19
#1170000000
0!
b0101 $
b1100 %
b0101 '
0(
b1100 )
b01110 +
1-
0.
0/
#1175000000
1!
b1101 %
1(
b1101 )
b01111 +
1.
1/
#1180000000
0!
b0110 $
b1101 %
b0110 '
0(
b1101 )
b01100 +
0-
0.
1/
00
12
03
04
#1185000000
1!
b1110 %
1(
b1110 )
b01111 +
1.
0/
10
13
14
#1190000000
0!
b0111 $
b1110 %
b0111 '
0(
b1110 )
b01110 +
1-
0.
0/
#1195000000
1!
b1111 %
1(
b1111 )
b01111 +
1.
1/
#1200000000
0!
0"
b1000 $
b1111 %
b1000 '
0(
b1111 )
0*
b00000 +
0-
0.
1/
00
02
03
14
05
07
08
19
0:
1<
0=
1>
0?
#1205000000
1!
1"
b0000 %
1(
b0000 )
1*
b11111 +
1.
0/
10
13
04
15
18
09
1:
1=
0>
1?
#1210000000
0!
b1001 $
b0000 %
b1001 '
0(
b0000 )
b11110 +
1-
0.
0/
#1215000000
1!
b0001 %
1(
b0001 )
b11111 +
1.
1/
#1220000000
0!
b1010 $
b0001 %
b1010 '
0(
b0001 )
b11100 +
0-
0.
1/
00
12
03
04
#1225000000
1!
b0010 %
1(
b0010 )
b11111 +
1.
0/
10
13
14
#1230000000
0!
b1011 $
b0010 %
b1011 '
0(
b0010 )
b11110 +
1-
0.
0/
#1235000000
1!
b0011 %
1(
b0011 )
b11111 +
1.
1/
#1240000000
0!
b1100 $
b0011 %
b1100 '
0(
b0011 )
b11000 +
0-
0.
1/
00
02
03
14
05
17
08
09
#1245000000
1!
b0100 %
1(
b0100 )
b11111 +
1.
0/
10
13
04
15
18
19
#1250000000
0!
b1101 $
b0100 %
b1101 '
0(
b0100 )
b11110 +
1-
0.
0/
#1255000000
1!
b0101 %
1(
b0101 )
b11111 +
1.
1/
#1260000000
0!
b1110 $
b0101 %
b1110 '
0(
b0101 )
b11100 +
0-
0.
1/
00
12
03
04
#1265000000
1!
b0110 %
1(
b0110 )
b11111 +
1.
0/
10
13
14
#1270000000
0!
b1111 $
b0110 %
b1111 '
0(
b0110 )
b11110 +
1-
0.
0/
#1275000000
1!
b0111 %
1(
b0111 )
b11111 +
1.
1/
#1280000000
0!
0"
b1000 #
b0000 $
b1000 %
b1000 &
b0000 '
0(
b1000 )
0*
b00000 +
0,
0-
0.
0/
00
01
02
03
04
05
06
07
08
09
0:
1;
0<
0=
1>
0?
#1285000000
1!
b1001 %
1(
b1001 )
b00001 +
1.
1/
#1290000000
0!
b0001 $
b1001 %
b0001 '
0(
b1001 )
b00000 +
1-
0.
1/
00
03
04
#1295000000
1!
b1010 %
1(
b1010 )
b00011 +
1.
0/
10
13
14
#1300000000
0!
b0010 $
b1010 %
b0010 '
0(
b1010 )
b00000 +
0-
0.
0/
00
12
03
14
05
08
09
#1305000000
1!
b1011 %
1(
b1011 )
b00001 +
1.
1/
#1310000000
0!
b0011 $
b1011 %
b0011 '
0(
b1011 )
b00000 +
1-
0.
1/
00
03
14
05
08
09
#1315000000
1!
b1100 %
1(
b1100 )
b00111 +
1.
0/
10
13
04
15
18
19
#1320000000
0!
0"
b0100 $
b1100 %
b0100 '
0(
b1100 )
0*
b00000 +
0-
0.
0/
00
02
03
04
05
17
08
19
0:
0=
1>
0?
#1325000000
1!
b1101 %
1(
b1101 )
b00001 +
1.
1/
#1330000000
0!
b0101 $
b1101 %
b0101 '
0(
b1101 )
b00000 +
1-
0.
1/
00
03
04
