archi2/TP2/EX1/test_4b.vcd
$date
  Mon Oct 21 15:04:52 2019
$end
$version
  GHDL v0
$end
$timescale
  1 fs
$end
$var reg 1 ! c $end
$var reg 1 " r $end
$var reg 4 # a[3:0] $end
$var reg 4 $ b[3:0] $end
$var reg 4 % s[3:0] $end
$scope module adder $end
$var reg 4 & a[3:0] $end
$var reg 4 ' b[3:0] $end
$var reg 1 ( c $end
$var reg 4 ) s[3:0] $end
$var reg 1 * r $end
$var reg 5 + d[4:0] $end
$scope module (0) $end
$scope module adder $end
$upscope $end
$upscope $end
$scope module (1) $end
$scope module adder $end
$upscope $end
$upscope $end
$scope module (2) $end
$scope module adder $end
$upscope $end
$upscope $end
$scope module (3) $end
$scope module adder $end
$upscope $end
$upscope $end
$upscope $end
$enddefinitions $end
#0
0!
U"
b0000 #
b0000 $
bUUUU %
b0000 &
b0000 '
0(
bUUUU )
U*
bUUUU0 +
#5000000
1!
1(
bUUUU1 +
#10000000
0!
b0001 $
b0001 '
0(
bUUUU0 +
#15000000
1!
1(
bUUUU1 +
#20000000
0!
b0010 $
b0010 '
0(
bUUUU0 +
#25000000
1!
1(
bUUUU1 +
#30000000
0!
b0011 $
b0011 '
0(
bUUUU0 +
#35000000
1!
1(
bUUUU1 +
#40000000
0!
b0100 $
b0100 '
0(
bUUUU0 +
#45000000
1!
1(
bUUUU1 +
#50000000
0!
b0101 $
b0101 '
0(
bUUUU0 +
#55000000
1!
1(
bUUUU1 +
#60000000
0!
b0110 $
b0110 '
0(
bUUUU0 +
#65000000
1!
1(
bUUUU1 +
#70000000
0!
b0111 $
b0111 '
0(
bUUUU0 +
#75000000
1!
1(
bUUUU1 +
#80000000
0!
b1000 $
b1000 '
0(
bUUUU0 +
#85000000
1!
1(
bUUUU1 +
#90000000
0!
b1001 $
b1001 '
0(
bUUUU0 +
#95000000
1!
1(
bUUUU1 +
#100000000
0!
b1010 $
b1010 '
0(
bUUUU0 +
#105000000
1!
1(
bUUUU1 +
#110000000
0!
b1011 $
b1011 '
0(
bUUUU0 +
#115000000
1!
1(
bUUUU1 +
#120000000
0!
b1100 $
b1100 '
0(
bUUUU0 +
#125000000
1!
1(
bUUUU1 +
#130000000
0!
b1101 $
b1101 '
0(
bUUUU0 +
#135000000
1!
1(
bUUUU1 +
#140000000
0!
b1110 $
b1110 '
0(
bUUUU0 +
#145000000
1!
1(
bUUUU1 +
#150000000
0!
b1111 $
b1111 '
0(
bUUUU0 +
#155000000
1!
1(
bUUUU1 +
#160000000
0!
b0001 #
b0000 $
b0001 &
b0000 '
0(
bUUUU0 +
#165000000
1!
1(
bUUUU1 +
#170000000
0!
b0001 $
b0001 '
0(
bUUUU0 +
#175000000
1!
1(
bUUUU1 +
#180000000
0!
b0010 $
b0010 '
0(
bUUUU0 +
#185000000
1!
1(
bUUUU1 +
#190000000
0!
b0011 $
b0011 '
0(
bUUUU0 +
#195000000
1!
1(
bUUUU1 +
#200000000
0!
b0100 $
b0100 '
0(
bUUUU0 +
#205000000
1!
1(
bUUUU1 +
#210000000
0!
b0101 $
b0101 '
0(
bUUUU0 +
#215000000
1!
1(
bUUUU1 +
#220000000
0!
b0110 $
b0110 '
0(
bUUUU0 +
#225000000
1!
1(
bUUUU1 +
#230000000
0!
b0111 $
b0111 '
0(
bUUUU0 +
#235000000
1!
1(
bUUUU1 +
#240000000
0!
b1000 $
b1000 '
0(
bUUUU0 +
#245000000
1!
1(
bUUUU1 +
#250000000
0!
b1001 $
b1001 '
0(
bUUUU0 +
#255000000
1!
1(
bUUUU1 +
#260000000
0!
b1010 $
b1010 '
0(
bUUUU0 +
#265000000
1!
1(
bUUUU1 +
#270000000
0!
b1011 $
b1011 '
0(
bUUUU0 +
#275000000
1!
1(
bUUUU1 +
#280000000
0!
b1100 $
b1100 '
0(
bUUUU0 +
#285000000
1!
1(
bUUUU1 +
#290000000
0!
b1101 $
b1101 '
0(
bUUUU0 +
#295000000
1!
1(
bUUUU1 +
#300000000
0!
b1110 $
b1110 '
0(
bUUUU0 +
#305000000
1!
1(
bUUUU1 +
#310000000
0!
b1111 $
b1111 '
0(
bUUUU0 +
#315000000
1!
1(
bUUUU1 +
#320000000
0!
b0010 #
b0000 $
b0010 &
b0000 '
0(
bUUUU0 +
#325000000
1!
1(
bUUUU1 +
#330000000
0!
b0001 $
b0001 '
0(
bUUUU0 +
#335000000
1!
1(
bUUUU1 +
#340000000
0!
b0010 $
b0010 '
0(
bUUUU0 +
#345000000
1!
1(
bUUUU1 +
#350000000
0!
b0011 $
b0011 '
0(
bUUUU0 +
#355000000
1!
1(
bUUUU1 +
#360000000
0!
b0100 $
b0100 '
0(
bUUUU0 +
#365000000
1!
1(
bUUUU1 +
#370000000
0!
b0101 $
b0101 '
0(
bUUUU0 +
#375000000
1!
1(
bUUUU1 +
#380000000
0!
b0110 $
b0110 '
0(
bUUUU0 +
#385000000
1!
1(
bUUUU1 +
#390000000
0!
b0111 $
b0111 '
0(
bUUUU0 +
#395000000
1!
1(
bUUUU1 +
#400000000
0!
b1000 $
b1000 '
0(
bUUUU0 +
#405000000
1!
1(
bUUUU1 +
#410000000
0!
b1001 $
b1001 '
0(
bUUUU0 +
#415000000
1!
1(
bUUUU1 +
#420000000
0!
b1010 $
b1010 '
0(
bUUUU0 +
#425000000
1!
1(
bUUUU1 +
#430000000
0!
b1011 $
b1011 '
0(
bUUUU0 +
#435000000
1!
1(
bUUUU1 +
#440000000
0!
b1100 $
b1100 '
0(
bUUUU0 +
#445000000
1!
1(
bUUUU1 +
#450000000
0!
b1101 $
b1101 '
0(
bUUUU0 +
#455000000
1!
1(
bUUUU1 +
#460000000
0!
b1110 $
b1110 '
0(
bUUUU0 +
#465000000
1!
1(
bUUUU1 +
#470000000
0!
b1111 $
b1111 '
0(
bUUUU0 +
#475000000
1!
1(
bUUUU1 +
#480000000
0!
b0011 #
b0000 $
b0011 &
b0000 '
0(
bUUUU0 +
#485000000
1!
1(
bUUUU1 +
#490000000
0!
b0001 $
b0001 '
0(
bUUUU0 +
#495000000
1!
1(
bUUUU1 +
#500000000
0!
b0010 $
b0010 '
0(
bUUUU0 +
#505000000
1!
1(
bUUUU1 +
#510000000
0!
b0011 $
b0011 '
0(
bUUUU0 +
#515000000
1!
1(
bUUUU1 +
#520000000
0!
b0100 $
b0100 '
0(
bUUUU0 +
#525000000
1!
1(
bUUUU1 +
#530000000
0!
b0101 $
b0101 '
0(
bUUUU0 +
#535000000
1!
1(
bUUUU1 +
#540000000
0!
b0110 $
b0110 '
0(
bUUUU0 +
#545000000
1!
1(
bUUUU1 +
#550000000
0!
b0111 $
b0111 '
0(
bUUUU0 +
#555000000
1!
1(
bUUUU1 +
#560000000
0!
b1000 $
b1000 '
0(
bUUUU0 +
#565000000
1!
1(
bUUUU1 +
#570000000
0!
b1001 $
b1001 '
0(
bUUUU0 +
#575000000
1!
1(
bUUUU1 +
#580000000
0!
b1010 $
b1010 '
0(
bUUUU0 +
#585000000
1!
1(
bUUUU1 +
#590000000
0!
b1011 $
b1011 '
0(
bUUUU0 +
#595000000
1!
1(
bUUUU1 +
#600000000
0!
b1100 $
b1100 '
0(
bUUUU0 +
#605000000
1!
1(
bUUUU1 +
#610000000
0!
b1101 $
b1101 '
0(
bUUUU0 +
#615000000
1!
1(
bUUUU1 +
#620000000
0!
b1110 $
b1110 '
0(
bUUUU0 +
#625000000
1!
1(
bUUUU1 +
#630000000
0!
b1111 $
b1111 '
0(
bUUUU0 +
#635000000
1!
1(
bUUUU1 +
#640000000
0!
b0100 #
b0000 $
b0100 &
b0000 '
0(
bUUUU0 +
#645000000
1!
1(
bUUUU1 +
#650000000
0!
b0001 $
b0001 '
0(
bUUUU0 +
#655000000
1!
1(
bUUUU1 +
#660000000
0!
b0010 $
b0010 '
0(
bUUUU0 +
#665000000
1!
1(
bUUUU1 +
#670000000
0!
b0011 $
b0011 '
0(
bUUUU0 +
#675000000
1!
1(
bUUUU1 +
#680000000
0!
b0100 $
b0100 '
0(
bUUUU0 +
#685000000
1!
1(
bUUUU1 +
#690000000
0!
b0101 $
b0101 '
0(
bUUUU0 +
#695000000
1!
1(
bUUUU1 +
#700000000
0!
b0110 $
b0110 '
0(
bUUUU0 +
#705000000
1!
1(
bUUUU1 +
#710000000
0!
b0111 $
b0111 '
0(
bUUUU0 +
#715000000
1!
1(
bUUUU1 +
#720000000
0!
b1000 $
b1000 '
0(
bUUUU0 +
#725000000
1!
1(
bUUUU1 +
#730000000
0!
b1001 $
b1001 '
0(
bUUUU0 +
#735000000
1!
1(
bUUUU1 +
#740000000
0!
b1010 $
b1010 '
0(
bUUUU0 +
#745000000
1!
1(
bUUUU1 +
#750000000
0!
b1011 $
b1011 '
0(
bUUUU0 +
#755000000
1!
1(
bUUUU1 +
#760000000
0!
b1100 $
b1100 '
0(
bUUUU0 +
#765000000
1!
1(
bUUUU1 +
#770000000
0!
b1101 $
b1101 '
0(
bUUUU0 +
#775000000
1!
1(
bUUUU1 +
#780000000
0!
b1110 $
b1110 '
0(
bUUUU0 +
#785000000
1!
1(
bUUUU1 +
#790000000
0!
b1111 $
b1111 '
0(
bUUUU0 +
#795000000
1!
1(
bUUUU1 +
#800000000
0!
b0101 #
b0000 $
b0101 &
b0000 '
0(
bUUUU0 +
#805000000
1!
1(
bUUUU1 +
#810000000
0!
b0001 $
b0001 '
0(
bUUUU0 +
#815000000
1!
1(
bUUUU1 +
#820000000
0!
b0010 $
b0010 '
0(
bUUUU0 +
#825000000
1!
1(
bUUUU1 +
#830000000
0!
b0011 $
b0011 '
0(
bUUUU0 +
#835000000
1!
1(
bUUUU1 +
#840000000
0!
b0100 $
b0100 '
0(
bUUUU0 +
#845000000
1!
1(
bUUUU1 +
#850000000
0!
b0101 $
b0101 '
0(
bUUUU0 +
#855000000
1!
1(
bUUUU1 +
#860000000
0!
b0110 $
b0110 '
0(
bUUUU0 +
#865000000
1!
1(
bUUUU1 +
#870000000
0!
b0111 $
b0111 '
0(
bUUUU0 +
#875000000
1!
1(
bUUUU1 +
#880000000
0!
b1000 $
b1000 '
0(
bUUUU0 +
#885000000
1!
1(
bUUUU1 +
#890000000
0!
b1001 $
b1001 '
0(
bUUUU0 +
#895000000
1!
1(
bUUUU1 +
#900000000
0!
b1010 $
b1010 '
0(
bUUUU0 +
#905000000
1!
1(
bUUUU1 +
#910000000
0!
b1011 $
b1011 '
0(
bUUUU0 +
#915000000
1!
1(
bUUUU1 +
#920000000
0!
b1100 $
b1100 '
0(
bUUUU0 +
#925000000
1!
1(
bUUUU1 +
#930000000
0!
b1101 $
b1101 '
0(
bUUUU0 +
#935000000
1!
1(
bUUUU1 +
#940000000
0!
b1110 $
b1110 '
0(
bUUUU0 +
#945000000
1!
1(
bUUUU1 +
#950000000
0!
b1111 $
b1111 '
0(
bUUUU0 +
#955000000
1!
1(
bUUUU1 +
#960000000
0!
b0110 #
b0000 $
b0110 &
b0000 '
0(
bUUUU0 +
#965000000
1!
1(
bUUUU1 +
#970000000
0!
b0001 $
b0001 '
0(
bUUUU0 +
#975000000
1!
1(
bUUUU1 +
#980000000
0!
b0010 $
b0010 '
0(
bUUUU0 +
#985000000
1!
1(
bUUUU1 +
#990000000
0!
b0011 $
b0011 '
0(
bUUUU0 +
#995000000
1!
1(
bUUUU1 +
#1000000000
0!
b0100 $
b0100 '
0(
bUUUU0 +
#1005000000
1!
1(
bUUUU1 +
#1010000000
0!
b0101 $
b0101 '
0(
bUUUU0 +
#1015000000
1!
1(
bUUUU1 +
#1020000000
0!
b0110 $
b0110 '
0(
bUUUU0 +
#1025000000
1!
1(
bUUUU1 +
#1030000000
0!
b0111 $
b0111 '
0(
bUUUU0 +
#1035000000
1!
1(
bUUUU1 +
#1040000000
0!
b1000 $
b1000 '
0(
bUUUU0 +
#1045000000
1!
1(
bUUUU1 +
#1050000000
0!
b1001 $
b1001 '
0(
bUUUU0 +
#1055000000
1!
1(
bUUUU1 +
#1060000000
0!
b1010 $
b1010 '
0(
bUUUU0 +
#1065000000
1!
1(
bUUUU1 +
#1070000000
0!
b1011 $
b1011 '
0(
bUUUU0 +
#1075000000
1!
1(
bUUUU1 +
#1080000000
0!
b1100 $
b1100 '
0(
bUUUU0 +
#1085000000
1!
1(
bUUUU1 +
#1090000000
0!
b1101 $
b1101 '
0(
bUUUU0 +
#1095000000
1!
1(
bUUUU1 +
#1100000000
0!
b1110 $
b1110 '
0(
bUUUU0 +
#1105000000
1!
1(
bUUUU1 +
#1110000000
0!
b1111 $
b1111 '
0(
bUUUU0 +
#1115000000
1!
1(
bUUUU1 +
#1120000000
0!
b0111 #
b0000 $
b0111 &
b0000 '
0(
bUUUU0 +
#1125000000
1!
1(
bUUUU1 +
#1130000000
0!
b0001 $
b0001 '
0(
bUUUU0 +
#1135000000
1!
1(
bUUUU1 +
#1140000000
0!
b0010 $
b0010 '
0(
bUUUU0 +
#1145000000
1!
1(
bUUUU1 +
#1150000000
0!
b0011 $
b0011 '
0(
bUUUU0 +
#1155000000
1!
1(
bUUUU1 +
#1160000000
0!
b0100 $
b0100 '
0(
bUUUU0 +
#1165000000
1!
1(
bUUUU1 +
#1170000000
0!
b0101 $
b0101 '
0(
bUUUU0 +
#1175000000
1!
1(
bUUUU1 +
#1180000000
0!
b0110 $
b0110 '
0(
bUUUU0 +
#1185000000
1!
1(
bUUUU1 +
#1190000000
0!
b0111 $
b0111 '
0(
bUUUU0 +
#1195000000
1!
1(
bUUUU1 +
#1200000000
0!
b1000 $
b1000 '
0(
bUUUU0 +
#1205000000
1!
1(
bUUUU1 +
#1210000000
0!
b1001 $
b1001 '
0(
bUUUU0 +
#1215000000
1!
1(
bUUUU1 +
#1220000000
0!
b1010 $
b1010 '
0(
bUUUU0 +
#1225000000
1!
1(
bUUUU1 +
#1230000000
0!
b1011 $
b1011 '
0(
bUUUU0 +
#1235000000
1!
1(
bUUUU1 +
#1240000000
0!
b1100 $
b1100 '
0(
bUUUU0 +
#1245000000
1!
1(
bUUUU1 +
#1250000000
0!
b1101 $
b1101 '
0(
bUUUU0 +
#1255000000
1!
1(
bUUUU1 +
#1260000000
0!
b1110 $
b1110 '
0(
bUUUU0 +
#1265000000
1!
1(
bUUUU1 +
#1270000000
0!
b1111 $
b1111 '
0(
bUUUU0 +
#1275000000
1!
1(
bUUUU1 +
#1280000000
0!
b1000 #
b0000 $
b1000 &
b0000 '
0(
bUUUU0 +
#1285000000
1!
1(
bUUUU1 +
#1290000000
0!
b0001 $
b0001 '
0(
bUUUU0 +
#1295000000
1!
1(
bUUUU1 +
#1300000000
0!
b0010 $
b0010 '
0(
bUUUU0 +
#1305000000
1!
1(
bUUUU1 +
#1310000000
0!
b0011 $
b0011 '
0(
bUUUU0 +
#1315000000
1!
1(
bUUUU1 +
#1320000000
0!
b0100 $
b0100 '
0(
bUUUU0 +
#1325000000
1!
1(
bUUUU1 +
#1330000000
0!
b0101 $
b0101 '
0(
bUUUU0 +
#1335000000
1!
1(
bUUUU1 +
#1340000000
0!
b0110 $
b0110 '
0(
bUUUU0 +
#1345000000
1!
1(
bUUUU1 +
#1350000000
0!
b0111 $
b0111 '
0(
bUUUU0 +
#1355000000
1!
1(
bUUUU1 +
#1360000000
0!
b1000 $
b1000 '
0(
bUUUU0 +
#1365000000
1!
1(
bUUUU1 +
#1370000000
0!
b1001 $
b1001 '
0(
bUUUU0 +
#1375000000
1!
1(
bUUUU1 +
#1380000000
0!
b1010 $
b1010 '
0(
bUUUU0 +
#1385000000
1!
1(
bUUUU1 +
#1390000000
0!
b1011 $
b1011 '
0(
bUUUU0 +
#1395000000
1!
1(
bUUUU1 +
#1400000000
0!
b1100 $
b1100 '
0(
bUUUU0 +
#1405000000
1!
1(
bUUUU1 +
#1410000000
0!
b1101 $
b1101 '
0(
bUUUU0 +
#1415000000
1!
1(
bUUUU1 +
#1420000000
0!
b1110 $
b1110 '
0(
bUUUU0 +
#1425000000
1!
1(
bUUUU1 +
#1430000000
0!
b1111 $
b1111 '
0(
bUUUU0 +
#1435000000
1!
1(
bUUUU1 +
#1440000000
0!
b1001 #
b0000 $
b1001 &
b0000 '
0(
bUUUU0 +
#1445000000
1!
1(
bUUUU1 +
#1450000000
0!
b0001 $
b0001 '
0(
bUUUU0 +
#1455000000
1!
1(
bUUUU1 +
#1460000000
0!
b0010 $
b0010 '
0(
bUUUU0 +
#1465000000
1!
1(
bUUUU1 +
#1470000000
0!
b0011 $
b0011 '
0(
bUUUU0 +
#1475000000
1!
1(
bUUUU1 +
#1480000000
0!
b0100 $
b0100 '
0(
bUUUU0 +
#1485000000
1!
1(
bUUUU1 +
#1490000000
0!
b0101 $
b0101 '
0(
bUUUU0 +
#1495000000
1!
1(
bUUUU1 +
#1500000000
0!
b0110 $
b0110 '
0(
bUUUU0 +
#1505000000
1!
1(
bUUUU1 +
#1510000000
0!
b0111 $
b0111 '
0(
bUUUU0 +
#1515000000
1!
1(
bUUUU1 +
#1520000000
0!
b1000 $
b1000 '
0(
bUUUU0 +
#1525000000
1!
1(
bUUUU1 +
#1530000000
0!
b1001 $
b1001 '
0(
bUUUU0 +
#1535000000
1!
1(
bUUUU1 +
#1540000000
0!
b1010 $
b1010 '
0(
bUUUU0 +
#1545000000
1!
1(
bUUUU1 +
#1550000000
0!
b1011 $
b1011 '
0(
bUUUU0 +
#1555000000
1!
1(
bUUUU1 +
#1560000000
0!
b1100 $
b1100 '
0(
bUUUU0 +
#1565000000
1!
1(
bUUUU1 +
#1570000000
0!
b1101 $
b1101 '
0(
bUUUU0 +
#1575000000
1!
1(
bUUUU1 +
#1580000000
0!
b1110 $
b1110 '
0(
bUUUU0 +
#1585000000
1!
1(
bUUUU1 +
#1590000000
0!
b1111 $
b1111 '
0(
bUUUU0 +
#1595000000
1!
1(
bUUUU1 +
#1600000000
0!
b1010 #
b0000 $
b1010 &
b0000 '
0(
bUUUU0 +
#1605000000
1!
1(
bUUUU1 +
#1610000000
0!
b0001 $
b0001 '
0(
bUUUU0 +
#1615000000
1!
1(
bUUUU1 +
#1620000000
0!
b0010 $
b0010 '
0(
bUUUU0 +
#1625000000
1!
1(
bUUUU1 +
#1630000000
0!
b0011 $
b0011 '
0(
bUUUU0 +
#1635000000
1!
1(
bUUUU1 +
#1640000000
0!
b0100 $
b0100 '
0(
bUUUU0 +
#1645000000
1!
1(
bUUUU1 +
#1650000000
0!
b0101 $
b0101 '
0(
bUUUU0 +
#1655000000
1!
1(
bUUUU1 +
#1660000000
0!
b0110 $
b0110 '
0(
bUUUU0 +
#1665000000
1!
1(
bUUUU1 +
#1670000000
0!
b0111 $
b0111 '
0(
bUUUU0 +
#1675000000
1!
1(
bUUUU1 +
#1680000000
0!
b1000 $
b1000 '
0(
bUUUU0 +
#1685000000
1!
1(
bUUUU1 +
#1690000000
0!
b1001 $
b1001 '
0(
bUUUU0 +
#1695000000
1!
1(
bUUUU1 +
#1700000000
0!
b1010 $
b1010 '
0(
bUUUU0 +
#1705000000
1!
1(
bUUUU1 +
#1710000000
0!
b1011 $
b1011 '
0(
bUUUU0 +
#1715000000
1!
1(
bUUUU1 +
#1720000000
0!
b1100 $
b1100 '
0(
bUUUU0 +
#1725000000
1!
1(
bUUUU1 +
#1730000000
0!
b1101 $
b1101 '
0(
bUUUU0 +
#1735000000
1!
1(
bUUUU1 +
#1740000000
0!
b1110 $
b1110 '
0(
bUUUU0 +
#1745000000
1!
1(
bUUUU1 +
#1750000000
0!
b1111 $
b1111 '
0(
bUUUU0 +
#1755000000
1!
1(
bUUUU1 +
#1760000000
0!
b1011 #
b0000 $
b1011 &
b0000 '
0(
bUUUU0 +
#1765000000
1!
1(
bUUUU1 +
#1770000000
0!
b0001 $
b0001 '
0(
bUUUU0 +
#1775000000
1!
1(
bUUUU1 +
#1780000000
0!
b0010 $
b0010 '
0(
bUUUU0 +
#1785000000
1!
1(
bUUUU1 +
#1790000000
0!
b0011 $
b0011 '
0(
bUUUU0 +
#1795000000
1!
1(
bUUUU1 +
#1800000000
0!
b0100 $
b0100 '
0(
bUUUU0 +
#1805000000
1!
1(
bUUUU1 +
#1810000000
0!
b0101 $
b0101 '
0(
bUUUU0 +
#1815000000
1!
1(
bUUUU1 +
#1820000000
0!
b0110 $
b0110 '
0(
bUUUU0 +
#1825000000
1!
1(
bUUUU1 +
#1830000000
0!
b0111 $
b0111 '
0(
bUUUU0 +
#1835000000
1!
1(
bUUUU1 +
#1840000000
0!
b1000 $
b1000 '
0(
bUUUU0 +
#1845000000
1!
1(
bUUUU1 +
#1850000000
0!
b1001 $
b1001 '
0(
bUUUU0 +
#1855000000
1!
1(
bUUUU1 +
#1860000000
0!
b1010 $
b1010 '
0(
bUUUU0 +
#1865000000
1!
1(
bUUUU1 +
#1870000000
0!
b1011 $
b1011 '
0(
bUUUU0 +
#1875000000
1!
1(
bUUUU1 +
#1880000000
0!
b1100 $
b1100 '
0(
bUUUU0 +
#1885000000
1!
1(
bUUUU1 +
#1890000000
0!
b1101 $
b1101 '
0(
bUUUU0 +
#1895000000
1!
1(
bUUUU1 +
#1900000000
0!
b1110 $
b1110 '
0(
bUUUU0 +
#1905000000
1!
1(
bUUUU1 +
#1910000000
0!
b1111 $
b1111 '
0(
bUUUU0 +
#1915000000
1!
1(
bUUUU1 +
#1920000000
0!
b1100 #
b0000 $
b1100 &
b0000 '
0(
bUUUU0 +
#1925000000
1!
1(
bUUUU1 +
#1930000000
0!
b0001 $
b0001 '
0(
bUUUU0 +
#1935000000
1!
1(
bUUUU1 +
#1940000000
0!
b0010 $
b0010 '
0(
bUUUU0 +
#1945000000
1!
1(
bUUUU1 +
#1950000000
0!
b0011 $
b0011 '
0(
bUUUU0 +
#1955000000
1!
1(
bUUUU1 +
#1960000000
0!
b0100 $
b0100 '
0(
bUUUU0 +
#1965000000
1!
1(
bUUUU1 +
#1970000000
0!
b0101 $
b0101 '
0(
bUUUU0 +
#1975000000
1!
1(
bUUUU1 +
#1980000000
0!
b0110 $
b0110 '
0(
bUUUU0 +
#1985000000
1!
1(
bUUUU1 +
#1990000000
0!
b0111 $
b0111 '
0(
bUUUU0 +
#1995000000
1!
1(
bUUUU1 +
#2000000000
0!
b1000 $
b1000 '
0(
bUUUU0 +
#2005000000
1!
1(
bUUUU1 +
#2010000000
0!
b1001 $
b1001 '
0(
bUUUU0 +
#2015000000
1!
1(
bUUUU1 +
#2020000000
0!
b1010 $
b1010 '
0(
bUUUU0 +
#2025000000
1!
1(
bUUUU1 +
#2030000000
0!
b1011 $
b1011 '
0(
bUUUU0 +
#2035000000
1!
1(
bUUUU1 +
#2040000000
0!
b1100 $
b1100 '
0(
bUUUU0 +
#2045000000
1!
1(
bUUUU1 +
#2050000000
0!
b1101 $
b1101 '
0(
bUUUU0 +
#2055000000
1!
1(
bUUUU1 +
#2060000000
0!
b1110 $
b1110 '
0(
bUUUU0 +
#2065000000
1!
1(
bUUUU1 +
#2070000000
0!
b1111 $
b1111 '
0(
bUUUU0 +
#2075000000
1!
1(
bUUUU1 +
#2080000000
0!
b1101 #
b0000 $
b1101 &
b0000 '
0(
bUUUU0 +
#2085000000
1!
1(
bUUUU1 +
#2090000000
0!
b0001 $
b0001 '
0(
bUUUU0 +
#2095000000
1!
1(
bUUUU1 +
#2100000000
0!
b0010 $
b0010 '
0(
bUUUU0 +
#2105000000
1!
1(
bUUUU1 +
#2110000000
0!
b0011 $
b0011 '
0(
bUUUU0 +
#2115000000
1!
1(
bUUUU1 +
#2120000000
0!
b0100 $
b0100 '
0(
bUUUU0 +
#2125000000
1!
1(
bUUUU1 +
#2130000000
0!
b0101 $
b0101 '
0(
bUUUU0 +
#2135000000
1!
1(
bUUUU1 +
#2140000000
0!
b0110 $
b0110 '
0(
bUUUU0 +
#2145000000
1!
1(
bUUUU1 +
#2150000000
0!
b0111 $
b0111 '
0(
bUUUU0 +
#2155000000
1!
1(
bUUUU1 +
#2160000000
0!
b1000 $
b1000 '
0(
bUUUU0 +
#2165000000
1!
1(
bUUUU1 +
#2170000000
0!
b1001 $
b1001 '
0(
bUUUU0 +
#2175000000
1!
1(
bUUUU1 +
#2180000000
0!
b1010 $
b1010 '
0(
bUUUU0 +
#2185000000
1!
1(
bUUUU1 +
#2190000000
0!
b1011 $
b1011 '
0(
bUUUU0 +
#2195000000
1!
1(
bUUUU1 +
#2200000000
0!
b1100 $
b1100 '
0(
bUUUU0 +
#2205000000
1!
1(
bUUUU1 +
#2210000000
0!
b1101 $
b1101 '
0(
bUUUU0 +
#2215000000
1!
1(
bUUUU1 +
#2220000000
0!
b1110 $
b1110 '
0(
bUUUU0 +
#2225000000
1!
1(
bUUUU1 +
#2230000000
0!
b1111 $
b1111 '
0(
bUUUU0 +
#2235000000
1!
1(
bUUUU1 +
#2240000000
0!
b1110 #
b0000 $
b1110 &
b0000 '
0(
bUUUU0 +
#2245000000
1!
1(
bUUUU1 +
#2250000000
0!
b0001 $
b0001 '
0(
bUUUU0 +
#2255000000
1!
1(
bUUUU1 +
#2260000000
0!
b0010 $
b0010 '
0(
bUUUU0 +
#2265000000
1!
1(
bUUUU1 +
#2270000000
0!
b0011 $
b0011 '
0(
bUUUU0 +
#2275000000
1!
1(
bUUUU1 +
#2280000000
0!
b0100 $
b0100 '
0(
bUUUU0 +
#2285000000
1!
1(
bUUUU1 +
#2290000000
0!
b0101 $
b0101 '
0(
bUUUU0 +
#2295000000
1!
1(
bUUUU1 +
#2300000000
0!
b0110 $
b0110 '
0(
bUUUU0 +
#2305000000
1!
1(
bUUUU1 +
#2310000000
0!
b0111 $
b0111 '
0(
bUUUU0 +
#2315000000
1!
1(
bUUUU1 +
#2320000000
0!
b1000 $
b1000 '
0(
bUUUU0 +
#2325000000
1!
1(
bUUUU1 +
#2330000000
0!
b1001 $
b1001 '
0(
bUUUU0 +
#2335000000
1!
1(
bUUUU1 +
#2340000000
0!
b1010 $
b1010 '
0(
bUUUU0 +
#2345000000
1!
1(
bUUUU1 +
#2350000000
0!
b1011 $
b1011 '
0(
bUUUU0 +
#2355000000
1!
1(
bUUUU1 +
#2360000000
0!
b1100 $
b1100 '
0(
bUUUU0 +
#2365000000
1!
1(
bUUUU1 +
#2370000000
0!
b1101 $
b1101 '
0(
bUUUU0 +
#2375000000
1!
1(
bUUUU1 +
#2380000000
0!
b1110 $
b1110 '
0(
bUUUU0 +
#2385000000
1!
1(
bUUUU1 +
#2390000000
0!
b1111 $
b1111 '
0(
bUUUU0 +
#2395000000
1!
1(
bUUUU1 +
#2400000000
0!
b1111 #
b0000 $
b1111 &
b0000 '
0(
bUUUU0 +
#2405000000
1!
1(
bUUUU1 +
#2410000000
0!
b0001 $
b0001 '
0(
bUUUU0 +
#2415000000
1!
1(
bUUUU1 +
#2420000000
0!
b0010 $
b0010 '
0(
bUUUU0 +
#2425000000
1!
1(
bUUUU1 +
#2430000000
0!
b0011 $
b0011 '
0(
bUUUU0 +
#2435000000
1!
1(
bUUUU1 +
#2440000000
0!
b0100 $
b0100 '
0(
bUUUU0 +
#2445000000
1!
1(
bUUUU1 +
#2450000000
0!
b0101 $
b0101 '
0(
bUUUU0 +
#2455000000
1!
1(
bUUUU1 +
#2460000000
0!
b0110 $
b0110 '
0(
bUUUU0 +
#2465000000
1!
1(
bUUUU1 +
#2470000000
0!
b0111 $
b0111 '
0(
bUUUU0 +
#2475000000
1!
1(
bUUUU1 +
#2480000000
0!
b1000 $
b1000 '
0(
bUUUU0 +
#2485000000
1!
1(
bUUUU1 +
#2490000000
0!
b1001 $
b1001 '
0(
bUUUU0 +
#2495000000
1!
1(
bUUUU1 +
#2500000000
0!
b1010 $
b1010 '
0(
bUUUU0 +
#2505000000
1!
1(
bUUUU1 +
#2510000000
0!
b1011 $
b1011 '
0(
bUUUU0 +
#2515000000
1!
1(
bUUUU1 +
#2520000000
0!
b1100 $
b1100 '
0(
bUUUU0 +
#2525000000
1!
1(
bUUUU1 +
#2530000000
0!
b1101 $
b1101 '
0(
bUUUU0 +
#2535000000
1!
1(
bUUUU1 +
#2540000000
0!
b1110 $
b1110 '
0(
bUUUU0 +
#2545000000
1!
1(
bUUUU1 +
#2550000000
0!
b1111 $
b1111 '
0(
bUUUU0 +
#2555000000
1!
1(
bUUUU1 +
