L2/archi2/TP1/EX2/test.vcd
$date
  Mon Oct 14 15:24:31 2019
$end
$version
  GHDL v0
$end
$timescale
  1 fs
$end
$var reg 1 ! i1 $end
$var reg 1 " i0 $end
$var reg 1 # n $end
$var reg 1 $ o3 $end
$var reg 1 % o2 $end
$var reg 1 & o1 $end
$var reg 1 ' o0 $end
$scope module fddtp1ex1 $end
$var reg 1 ( e1 $end
$var reg 1 ) e0 $end
$var reg 1 * nenable $end
$var reg 1 + s3 $end
$var reg 1 , s2 $end
$var reg 1 - s1 $end
$var reg 1 . s0 $end
$var reg 4 / s[3:0] $end
$upscope $end
$enddefinitions $end
#0
0!
0"
0#
0$
0%
0&
1'
0(
0)
0*
0+
0,
0-
1.
b0001 /
#5000000
1"
1&
0'
1)
0+
0,
1-
0.
b0010 /
#10000000
1!
0"
1%
0&
1(
0)
0+
1,
0-
0.
b0100 /
#15000000
1"
1$
0%
1)
1+
0,
0-
0.
b1000 /
#20000000
0!
0"
1#
Z$
Z%
Z&
Z'
0(
0)
1*
Z+
Z,
Z-
Z.
bZZZZ /
#25000000
1"
1)
#30000000
1!
0"
1(
0)
#35000000
1"
1)
